{
"t0921":{"name":"宇都宮","population":"16562","date_mod":"1957-3-15"},
"t0922":{"name":"小山","population":"17825","date_mod":"1957-3-16"},
"t0923":{"name":"佐野","population":"19564","date_mod":"1957-3-17"},
"t0924":{"name":"足利","population":"93672","date_mod":"1957-5-9"},
"t0925":{"name":"日光","population":"72351","date_mod":"1957-6-4"},
"t0926":{"name":"下野","population":"35187","date_mod":"1957-3-21"},
"t0927":{"name":"さくら","population":"31246","date_mod":"1957-10-23"},
"t0928":{"name":"矢板","population":"65792","date_mod":"1957-8-26"},
"t0929":{"name":"真岡","population":"74139","date_mod":"1957-2-15"},
"t0930":{"name":"栃木","population":"29831","date_mod":"1957-8-7"},
"t0931":{"name":"大田原","population":"54927","date_mod":"1957-5-12"},
"t0932":{"name":"鹿沼","population":"26843","date_mod":"1957-4-24"},
"t0933":{"name":"那須塩原","population":"23815","date_mod":"1957-2-9"},
"t0934":{"name":"那須烏山","population":"28674","date_mod":"1957-3-21"}
}
